[
{
  "pk": 1, 
  "model": "observation.crownclosure", 
  "fields": {
    "code": 0, 
    "description": "unbestockt"
  }
},
{
  "pk": 2, 
  "model": "observation.crownclosure", 
  "fields": {
    "code": 1, 
    "description": "gedr\u00e4ngt"
  }
},
{
  "pk": 3, 
  "model": "observation.crownclosure", 
  "fields": {
    "code": 2, 
    "description": "geschlossen"
  }
},
{
  "pk": 4, 
  "model": "observation.crownclosure", 
  "fields": {
    "code": 3, 
    "description": "l\u00fcckig"
  }
},
{
  "pk": 5, 
  "model": "observation.crownclosure", 
  "fields": {
    "code": 4, 
    "description": "aufgel\u00f6st"
  }
},
{
  "pk": 6, 
  "model": "observation.crownclosure", 
  "fields": {
    "code": 5, 
    "description": "Jungwuchs"
  }
},
{
  "pk": 7, 
  "model": "observation.crownclosure", 
  "fields": {
    "code": 6, 
    "description": "stufig"
  }
}
]
