[
{
  "pk": 1, 
  "model": "observation.ownertype", 
  "fields": {
    "code": "A", 
    "description": "\u00f6ffentlicher Wald B\u00fcrgergemeinde"
  }
},
{
  "pk": 2, 
  "model": "observation.ownertype", 
  "fields": {
    "code": "E", 
    "description": "Einwohnergemeinde"
  }
},
{
  "pk": 3, 
  "model": "observation.ownertype", 
  "fields": {
    "code": "P", 
    "description": "Privat"
  }
},
{
  "pk": 4, 
  "model": "observation.ownertype", 
  "fields": {
    "code": "S", 
    "description": "Staat"
  }
},
{
  "pk": 5, 
  "model": "observation.ownertype", 
  "fields": {
    "code": "U", 
    "description": "\u00dcbrige"
  }
},
{
  "pk": 6, 
  "model": "observation.ownertype", 
  "fields": {
    "code": "N", 
    "description": "Besitz noch zu definieren"
  }
}
]
