[
{
  "pk": 1, 
  "model": "observation.region", 
  "fields": {
    "code": 0, 
    "description": "Jura, Mittelland, Voralpen"
  }
},
{
  "pk": 2, 
  "model": "observation.region", 
  "fields": {
    "code": 1, 
    "description": "Zwischenalpen"
  }
},
{
  "pk": 3, 
  "model": "observation.region", 
  "fields": {
    "code": 2, 
    "description": "Hochalpen"
  }
},
{
  "pk": 4, 
  "model": "observation.region", 
  "fields": {
    "code": 3, 
    "description": "S\u00fcdalpen"
  }
}
]
