[
{
  "pk": 1, 
  "model": "observation.soilcompaction", 
  "fields": {
    "code": 0, 
    "description": "nicht, wenig verdichtet (0-10%)"
  }
},
{
  "pk": 2, 
  "model": "observation.soilcompaction", 
  "fields": {
    "code": 1, 
    "description": "teilweise verdichtet (10-30%)"
  }
},
{
  "pk": 3, 
  "model": "observation.soilcompaction", 
  "fields": {
    "code": 2, 
    "description": "fl\u00e4chig verdichtet >30%"
  }
}
]
